Overlapping hits between superintronic, INdEX, ISA and IRfinder
…
## Joining, by = "gene_id"

totalRNA_sets

## # A tibble: 60 x 4
##    gene_id       `superintronic:HCC287_ `superintronic:NCIH1975 gene_name
##    <chr>                           <int>                    <int> <chr>    
##  1 ENSG00000005                       1                        1 ITGA3    
##  2 ENSG00000038                       1                        1 TRIO     
##  3 ENSG00000050                       0                        1 LETMD1   
##  4 ENSG00000055                       1                        0 PUM2     
##  5 ENSG00000067                       1                        1 PKM      
##  6 ENSG00000071                       0                        1 DAZAP1   
##  7 ENSG00000096                       1                        1 HSP90AB1 
##  8 ENSG00000100                       0                        1 DHRS2    
##  9 ENSG00000101                       0                        1 CDC25B   
## 10 ENSG00000102                       1                        0 PGK1     
## #  with 50 more rows
…
irf_glm

## # A tibble: 303 x 4
##    gene_name              gene_id            data              IRFinder_GLM
##    <chr>                  <chr>              <list>                   <int>
##  1 ACADVL                 ENSG00000072778.19 <tibble [12  2]>            1
##  2 AC008982.1             ENSG00000268083.5  <tibble [7  2]>             1
##  3 CDKN2A                 ENSG00000147889.17 <tibble [1  2]>             1
##  4 HNRNPL                 ENSG00000104824.16 <tibble [2  2]>             1
##  5 CPNE1                  ENSG00000214078.12 <tibble [3  2]>             1
##  6 NOP56                  ENSG00000101361.16 <tibble [3  2]>             1
##  7 VCL                    ENSG00000035403.17 <tibble [2  2]>             1
##  8 STAG3L5P-PVRIG2P-PILRB ENSG00000272752.6  <tibble [1  2]>             1
##  9 CD44                   ENSG00000026508.17 <tibble [5  2]>             1
## 10 GLIPR1                 ENSG00000139278.9  <tibble [2  2]>             1
## #  with 293 more rows

IsoformSwitchAnalyzeR using the DEXSeq test

isa_sets <- isa_hits %>%
  mutate(`IsoformSwitchAnalyzeR` = 1L) %>% 
  select(gene_id, 
         `IsoformSwitchAnalyzeR`, 
         gene_name, 
         gene_switch_q_value, 
         rank = Rank)

isa_sets  

## # A tibble: 502 x 5
##    gene_id          IsoformSwitchAnalyz gene_name gene_switch_q_val  rank
##    <chr>                           <int> <chr>                  <dbl> <int>
##  1 ENSG00000100902                    1 PSMA6              0.            1
##  2 ENSG00000116133                    1 DHCR24             0.            2
##  3 ENSG00000122026                    1 RPL21              0.            3
##  4 ENSG00000143947                    1 RPS27A             0.            4
##  5 ENSG00000171863                    1 RPS7               0.            5
##  6 ENSG00000179218                    1 CALR               0.            6
##  7 ENSG00000197956                    1 S100A6             0.            7
##  8 ENSG00000104979                    1 C19orf53           4.84e-306     8
##  9 ENSG00000181029                    1 TRAPPC5            3.62e-293     9
## 10 ENSG00000108107                    1 RPL28              4.78e-291    10
## #  with 492 more rows
…
x <- index_analysis(exon, intron, group)

## creating design matrix by 'model.matrix(~group)'

index_res <- x$tops$intron %>% 
  filter(adj.P.Val < 0.01) %>% 
  select(gene_id = GeneID, index_pval = adj.P.Val, logfc = logFC) %>% 
  mutate(`INdEX` = 1L) %>% 
  as_tibble()

index_res

## # A tibble: 5,930 x 4
##    gene_id            index_pval  logfc INdEX
##    <fct>                   <dbl>  <dbl> <int>
##  1 ENSG00000000003.14  0.00372   -0.995     1
##  2 ENSG00000000457.13  0.00132   -0.487     1
##  3 ENSG00000000460.16  0.000342  -0.804     1
##  4 ENSG00000000971.15  0.0000389 -1.31      1
##  5 ENSG00000001084.10  0.00161   -0.579     1
##  6 ENSG00000001461.16  0.0000205 -1.29      1
##  7 ENSG00000001497.16  0.000567  -0.726     1
##  8 ENSG00000001561.6   0.000316  -2.32      1
##  9 ENSG00000001617.11  0.0000168  4.80      1
## 10 ENSG00000001631.15  0.000621   0.484     1
## #  with 5,920 more rows
…
