Overlaps with index classifications
…
x <- index_analysis(exon, intron, group)

res <- x$tops$intron %>% 
  mutate(classification = x$category) %>% 
  as_tibble()

index_res <- res %>% 
  filter(adj.P.Val < 0.01) %>% 
  select(gene_id = GeneID, index_pval = adj.P.Val, logfc = logFC) %>% 
  mutate(`index` = 1L) 

index_res

## # A tibble: 5,930 x 4
##    gene_id            index_pval  logfc index
##    <fct>                   <dbl>  <dbl> <int>
##  1 ENSG00000000003.14  0.00372   -0.995     1
##  2 ENSG00000000457.13  0.00132   -0.487     1
##  3 ENSG00000000460.16  0.000342  -0.804     1
##  4 ENSG00000000971.15  0.0000389 -1.31      1
##  5 ENSG00000001084.10  0.00161   -0.579     1
##  6 ENSG00000001461.16  0.0000205 -1.29      1
##  7 ENSG00000001497.16  0.000567  -0.726     1
##  8 ENSG00000001561.6   0.000316  -2.32      1
##  9 ENSG00000001617.11  0.0000168  4.80      1
## 10 ENSG00000001631.15  0.000621   0.484     1
## #  with 5,920 more rows
…
